<svg width="512" height="512" xmlns="http://www.w3.org/2000/svg">

 <g>
  <title>background</title>
  <rect fill="none" id="canvas_background" height="402" width="582" y="-1" x="-1"/>
 </g>
 <g>
  <title>Layer 1</title>
  <circle fill="#eeedf2" r="215.6" id="Background_20_" cy="255.7" cx="254" class="st0"/>
  <line stroke-miterlimit="10" stroke-linecap="round" stroke-width="6" stroke="#1e247e" fill="none" y2="471.9" y1="471.9" x2="469.6" x1="57.9" id="Right_52_" class="st1"/>
  <line stroke-miterlimit="10" stroke-linecap="round" stroke-width="6" stroke="#1e247e" fill="none" y2="471.9" y1="471.9" x2="48.7" x1="38.4" id="Left_53_" class="st1"/>
  <path stroke-miterlimit="10" stroke-linecap="round" stroke-width="5" stroke="#1e247e" fill="#ffffff" id="Shape_86_" d="m463.8,302.1c0,10.8 -8.8,19.6 -19.6,19.6l-80.1,0c-8.6,0 -15.5,-6.9 -15.5,-15.5c0,-0.5 0,-1 0.1,-1.6c0,-0.4 0.1,-0.7 0.1,-1.1c1.1,-6.2 5.8,-11.2 12,-12.5c1.1,-0.2 2.2,-0.4 3.3,-0.4c0.1,0 0.1,0 0.2,0c-0.1,-0.9 -0.2,-1.7 -0.2,-2.6c0,-1.4 0.1,-2.8 0.4,-4.2c1.9,-9.9 10.6,-17.3 21,-17.3c1.4,0 2.7,0.1 4,0.4c3,-9.1 10.1,-16.4 19.1,-19.6c2.8,-1 5.8,-1.6 8.9,-1.8c0.5,0 1,0 1.5,0c0.1,0 0.1,0 0.2,0c17,0.1 30.8,14 30.8,31c0,2.3 -0.2,4.5 -0.7,6.6c8.4,2.3 14.5,9.9 14.5,19z" class="st15"/>
  <path stroke-miterlimit="10" stroke-linecap="round" stroke-width="5" stroke="#1e247e" fill="#ffffff" id="Line__x23_2_7_" d="m450,276.1c0,8.9 -3.7,16.9 -9.7,22.6" class="st15"/>
  <path stroke-miterlimit="10" stroke-linecap="round" stroke-width="5" stroke="#1e247e" fill="none" id="Line__x23_1_7_" d="m384.9,266.5c9.8,0 18.1,6.8 20.3,15.9" class="st47"/>
  <path stroke-miterlimit="10" stroke-linecap="round" stroke-width="5" stroke="#1e247e" fill="#ffffff" id="Shape_85_" d="m311,143.2c0,10.8 -8.8,19.6 -19.6,19.6l-80.1,0c-8.6,0 -15.5,-6.9 -15.5,-15.5c0,-0.5 0,-1 0.1,-1.6c0,-0.4 0.1,-0.7 0.1,-1.1c1.1,-6.2 5.8,-11.2 12,-12.5c1.1,-0.2 2.2,-0.4 3.3,-0.4c0.1,0 0.1,0 0.2,0c-0.1,-0.9 -0.2,-1.7 -0.2,-2.6c0,-1.4 0.1,-2.8 0.4,-4.2c1.9,-9.9 10.6,-17.3 21,-17.3c1.4,0 2.7,0.1 4,0.4c3,-9.1 10.1,-16.4 19.1,-19.6c2.8,-1 5.8,-1.6 8.9,-1.8c0.5,0 1,0 1.5,0c0.1,0 0.1,0 0.2,0c17,0.1 30.8,14 30.8,31c0,2.3 -0.2,4.5 -0.7,6.6c8.4,2.3 14.5,9.9 14.5,19z" class="st15"/>
  <path stroke-miterlimit="10" stroke-linecap="round" stroke-width="5" stroke="#1e247e" fill="#ffffff" id="Line__x23_2_6_" d="m297.2,117.2c0,8.9 -3.7,16.9 -9.7,22.6" class="st15"/>
  <path stroke-miterlimit="10" stroke-linecap="round" stroke-width="5" stroke="#1e247e" fill="none" id="Line__x23_1_6_" d="m232.1,107.6c9.8,0 18.1,6.8 20.3,15.9" class="st47"/>
  <path fill="#d3d5e7" id="Secondary_cloud__x23_2" d="m432.7,195.7c0,10.1 -8.2,18.2 -18.2,18.2l-74.6,0c-8,0 -14.4,-6.5 -14.4,-14.4c0,-0.5 0,-1 0.1,-1.4c0,-0.3 0.1,-0.7 0.1,-1c1,-5.8 5.4,-10.4 11.1,-11.7c1,-0.2 2,-0.3 3.1,-0.3c0,0 0.1,0 0.1,0c-0.1,-0.8 -0.1,-1.6 -0.1,-2.4c0,-1.3 0.1,-2.6 0.4,-3.9c1.8,-9.2 9.9,-16.1 19.6,-16.1c1.3,0 2.5,0.1 3.7,0.3c2.8,-8.5 9.4,-15.3 17.8,-18.3c2.6,-0.9 5.4,-1.5 8.3,-1.6c0.5,0 0.9,0 1.4,0c0.1,0 0.1,0 0.2,0c15.9,0.1 28.7,13 28.7,28.9c0,2.1 -0.2,4.2 -0.7,6.1c7.7,2.1 13.4,9.2 13.4,17.6z" class="st14"/>
  <path fill="#d3d5e7" id="Secondary_cloud__x23_1" d="m177.1,254.9c0,10.1 -8.2,18.2 -18.2,18.2l-74.6,0c-8,0 -14.4,-6.5 -14.4,-14.4c0,-0.5 0,-1 0.1,-1.4c0,-0.3 0.1,-0.7 0.1,-1c1,-5.8 5.4,-10.4 11.1,-11.7c1,-0.2 2,-0.3 3.1,-0.3c0,0 0.1,0 0.1,0c-0.1,-0.8 -0.1,-1.6 -0.1,-2.4c0,-1.3 0.1,-2.6 0.4,-3.9c1.8,-9.2 9.9,-16.1 19.6,-16.1c1.3,0 2.5,0.1 3.7,0.3c2.8,-8.5 9.4,-15.3 17.8,-18.3c2.6,-0.9 5.4,-1.5 8.3,-1.6c0.5,0 0.9,0 1.4,0c0.1,0 0.1,0 0.2,0c15.9,0.1 28.7,13 28.7,28.9c0,2.1 -0.2,4.2 -0.7,6.1c7.7,2.1 13.4,9.2 13.4,17.6z" class="st14"/>
  <path stroke-miterlimit="10" stroke-linecap="round" stroke-width="6" stroke="#1e247e" fill="#da867d" id="Shape_84_" d="m235.2,471.3l-125,0l0,-211.6c0,-2 1.6,-3.6 3.6,-3.6l117.7,0c2,0 3.6,1.6 3.6,3.6l0,211.6l0.1,0z" class="st30"/>
  <line stroke-miterlimit="10" stroke-linecap="round" stroke-width="3" stroke="#1e247e" fill="none" y2="274.1" y1="274.1" x2="155.6" x1="110.2" id="Top_line_5_" class="st3"/>
  <line stroke-miterlimit="10" stroke-linecap="round" stroke-width="3" stroke="#1e247e" fill="none" y2="422" y1="422" x2="208.3" x1="181.6" id="Right_51_" class="st3"/>
  <line stroke-miterlimit="10" stroke-linecap="round" stroke-width="3" stroke="#1e247e" fill="none" y2="422" y1="422" x2="170.6" x1="162.9" id="Left_52_" class="st3"/>
  <line stroke-miterlimit="10" stroke-linecap="round" stroke-width="2.5" stroke="#1e247e" fill="none" y2="344.3" y1="338.1" x2="163.6" x1="155.6" id="Bottom_71_" class="st25"/>
  <line stroke-miterlimit="10" stroke-linecap="round" stroke-width="2.5" stroke="#1e247e" fill="none" y2="342.8" y1="330.4" x2="171.6" x1="155.6" id="Middle_59_" class="st25"/>
  <line stroke-miterlimit="10" stroke-linecap="round" stroke-width="2.5" stroke="#1e247e" fill="none" y2="334.9" y1="331.5" x2="171.6" x1="167.2" id="Top_73_" class="st25"/>
  <path stroke-miterlimit="10" stroke-linecap="round" stroke-width="6" stroke="#1e247e" fill="#dbe7fe" id="Shape_83_" d="m404.4,471.3l-125,0l0,-389.5c0,-2.7 2.2,-4.9 4.9,-4.9l115.2,0c2.7,0 4.9,2.2 4.9,4.9l0,389.5z" class="st48"/>
  <line stroke-miterlimit="10" stroke-linecap="round" stroke-width="6" stroke="#1e247e" fill="none" y2="40.1" y1="76.9" x2="334.3" x1="334.3" id="Left_50_" class="st1"/>
  <line stroke-miterlimit="10" stroke-linecap="round" stroke-width="6" stroke="#1e247e" fill="none" y2="57.6" y1="76.8" x2="348.9" x1="348.9" id="Right_50_" class="st1"/>
  <line stroke-miterlimit="10" stroke-linecap="round" stroke-width="3" stroke="#1e247e" fill="none" y2="453" y1="453" x2="405.2" x1="373.7" id="Bottom_70_" class="st3"/>
  <line stroke-miterlimit="10" stroke-linecap="round" stroke-width="3" stroke="#1e247e" fill="none" y2="431.1" y1="431.1" x2="366.9" x1="362.2" id="Top_72_" class="st3"/>
  <line stroke-miterlimit="10" stroke-linecap="round" stroke-width="2.5" stroke="#1e247e" fill="none" y2="134.1" y1="127.9" x2="323.1" x1="315.1" id="Bottom_69_" class="st25"/>
  <line stroke-miterlimit="10" stroke-linecap="round" stroke-width="2.5" stroke="#1e247e" fill="none" y2="132.6" y1="120.2" x2="331.1" x1="315.1" id="Middle_58_" class="st25"/>
  <line stroke-miterlimit="10" stroke-linecap="round" stroke-width="2.5" stroke="#1e247e" fill="none" y2="124.7" y1="121.3" x2="331.1" x1="326.7" id="Top_71_" class="st25"/>
  <path stroke-miterlimit="10" stroke-linecap="round" stroke-width="6" stroke="#1e247e" fill="#ffffff" id="Shape_82_" d="m314,471.3l-119.7,0c-1.4,0 -2.5,-1.1 -2.5,-2.5l0,-240c0,-2.9 1.7,-5.6 4.3,-6.9l113,-54.5c3,-1.7 6.9,0 7.3,3.4c0,0.2 0,0.4 0,0.6l0,297.3c0,1.5 -1.1,2.6 -2.4,2.6z" class="st31"/>
  <path fill="#bdbdbd" opacity="0.1" id="Shadow_56_" d="m313.5,175.9l0,292.6l-27.3,0l0,-286.8l20.1,-9.7l5.5,-2.6c0,0 1.2,-0.3 1.6,0.9l0,5.6l0.1,0z" class="st49"/>
  <rect stroke-miterlimit="10" stroke-linejoin="round" stroke-linecap="round" stroke-width="6" stroke="#1e247e" fill="#69aef8" y="216.2" x="272.2" width="20" id="Shape_81_" height="205.3" class="st50"/>
  <line stroke-miterlimit="10" stroke-linecap="round" stroke-width="3" stroke="#1e247e" fill="none" y2="396.1" y1="396.1" x2="292.1" x1="272.2" id="_x38_th" class="st3"/>
  <line stroke-miterlimit="10" stroke-linecap="round" stroke-width="3" stroke="#1e247e" fill="none" y2="373.5" y1="373.5" x2="292.1" x1="272.2" id="_x37_th" class="st3"/>
  <line stroke-miterlimit="10" stroke-linecap="round" stroke-width="3" stroke="#1e247e" fill="none" y2="350.9" y1="350.9" x2="292.1" x1="272.2" id="_x36_th_1_" class="st3"/>
  <line stroke-miterlimit="10" stroke-linecap="round" stroke-width="3" stroke="#1e247e" fill="none" y2="328.2" y1="328.2" x2="292.1" x1="272.2" id="_x35_th_4_" class="st3"/>
  <line stroke-miterlimit="10" stroke-linecap="round" stroke-width="3" stroke="#1e247e" fill="none" y2="305.9" y1="305.9" x2="292.1" x1="272.2" id="_x34_th_10_" class="st3"/>
  <line stroke-miterlimit="10" stroke-linecap="round" stroke-width="3" stroke="#1e247e" fill="none" y2="283.6" y1="283.6" x2="292.1" x1="272.2" id="_x33_rd_22_" class="st3"/>
  <line stroke-miterlimit="10" stroke-linecap="round" stroke-width="3" stroke="#1e247e" fill="none" y2="261.3" y1="261.3" x2="292.1" x1="272.2" id="_x32_nd_23_" class="st3"/>
  <line stroke-miterlimit="10" stroke-linecap="round" stroke-width="3" stroke="#1e247e" fill="none" y2="238.9" y1="238.9" x2="292.1" x1="272.2" id="_x31_st_23_" class="st3"/>
  <rect stroke-miterlimit="10" stroke-linejoin="round" stroke-linecap="round" stroke-width="6" stroke="#1e247e" fill="#69aef8" y="336.6" x="217.1" width="19.9" id="Shape_80_" height="134.6" class="st50"/>
  <line stroke-miterlimit="10" stroke-linecap="round" stroke-width="3" stroke="#1e247e" fill="none" y2="448.6" y1="448.6" x2="237.1" x1="217.1" id="_x35_th_3_" class="st3"/>
  <line stroke-miterlimit="10" stroke-linecap="round" stroke-width="3" stroke="#1e247e" fill="none" y2="426.3" y1="426.3" x2="237.1" x1="217.1" id="_x34_th_9_" class="st3"/>
  <line stroke-miterlimit="10" stroke-linecap="round" stroke-width="3" stroke="#1e247e" fill="none" y2="404" y1="404" x2="237.1" x1="217.1" id="_x33_rd_21_" class="st3"/>
  <line stroke-miterlimit="10" stroke-linecap="round" stroke-width="3" stroke="#1e247e" fill="none" y2="381.7" y1="381.7" x2="237.1" x1="217.1" id="_x32_nd_22_" class="st3"/>
  <line stroke-miterlimit="10" stroke-linecap="round" stroke-width="3" stroke="#1e247e" fill="none" y2="359.3" y1="359.3" x2="237.1" x1="217.1" id="_x31_st_22_" class="st3"/>
  <line stroke-miterlimit="10" stroke-linecap="round" stroke-width="3" stroke="#1e247e" fill="none" y2="201.8" y1="203.2" x2="260.4" x1="257.4" id="Right_47_" class="st3"/>
  <line stroke-miterlimit="10" stroke-linecap="round" stroke-width="3" stroke="#1e247e" fill="none" y2="205.1" y1="212.1" x2="253.4" x1="239" id="Left_48_" class="st3"/>
  <path stroke-miterlimit="10" stroke-width="5" stroke="#1e247e" fill="#79caa1" id="Shape_79_" d="m70.9,377c0.9,1 1.7,1.9 2.4,3c1.6,2.2 2.9,4.3 4.3,6.4c5.7,8.5 12.1,18.8 14.5,29.3c0.7,2.9 1.1,5.9 1.1,8.7c-0.4,14.9 -12.6,26.9 -27.6,26.9c-15,0 -27.2,-11.9 -27.6,-26.9c0,-2.8 0.5,-5.8 1.1,-8.7c2.5,-10.6 8.6,-20.9 14.3,-29.3c1.5,-2.2 3.2,-4.4 4.8,-6.7c0.7,-1 1.5,-2 2.4,-2.9l0.9,-1c2.2,-2.4 6,-2.4 8.2,0l1.2,1.2z" class="st51"/>
  <line stroke-miterlimit="10" stroke-linecap="round" stroke-width="5" stroke="#1e247e" fill="#d2d4e6" y2="470" y1="407.7" x2="65.7" x1="65.7" id="Base_line" class="st52"/>
  <line stroke-miterlimit="10" stroke-linecap="round" stroke-width="5" stroke="#1e247e" fill="#d2d4e6" y2="423.2" y1="439.1" x2="52" x1="65.7" id="Left_line_2_" class="st52"/>
  <line stroke-miterlimit="10" stroke-linecap="round" stroke-width="5" stroke="#1e247e" fill="#d2d4e6" y2="413.4" y1="423.6" x2="74.5" x1="65.7" id="Right_line_2_" class="st52"/>
  <path stroke-miterlimit="10" stroke-width="5" stroke="#1e247e" fill="#69aef8" id="Shape_78_" d="m451.5,378.7c0.9,1 1.7,1.9 2.4,3c1.6,2.2 2.9,4.3 4.3,6.4c5.7,8.5 12.1,18.8 14.5,29.3c0.7,2.9 1.1,5.9 1.1,8.7c-0.4,14.9 -12.6,26.9 -27.6,26.9c-15,0 -27.2,-11.9 -27.6,-26.9c0,-2.8 0.5,-5.8 1.1,-8.7c2.5,-10.6 8.6,-20.9 14.3,-29.3c1.5,-2.2 3.2,-4.4 4.8,-6.7c0.7,-1 1.5,-2 2.4,-2.9l0.9,-1c2.2,-2.4 6,-2.4 8.2,0l1.2,1.2z" class="st53"/>
  <line stroke-miterlimit="10" stroke-linecap="round" stroke-width="5" stroke="#1e247e" fill="#d2d4e6" y2="471.6" y1="409.3" x2="446.3" x1="446.3" id="Base_line_1_" class="st52"/>
  <line stroke-miterlimit="10" stroke-linecap="round" stroke-width="5" stroke="#1e247e" fill="#d2d4e6" y2="424.8" y1="440.7" x2="432.6" x1="446.3" id="Left_line_1_" class="st52"/>
  <line stroke-miterlimit="10" stroke-linecap="round" stroke-width="5" stroke="#1e247e" fill="#d2d4e6" y2="415" y1="425.3" x2="455.1" x1="446.3" id="Right_line_1_" class="st52"/>
 </g>
</svg>