<?xml version="1.0" encoding="utf-8"?>
<!-- Generator: Adobe Illustrator 23.1.0, SVG Export Plug-In . SVG Version: 6.00 Build 0)  -->
<svg version="1.1" id="Layer_1" xmlns="http://www.w3.org/2000/svg" xmlns:xlink="http://www.w3.org/1999/xlink" x="0px" y="0px"
	 viewBox="0 0 64.9 24.8" style="enable-background:new 0 0 64.9 24.8;" xml:space="preserve">
<style type="text/css">
	.st0{fill:#1D1D69;}
</style>
<title>Booket Second Logo</title>
<g>
	<g id="Layer_1-2">
		<path class="st0" d="M64.9,24.8H0c0.2-0.8,0.4-1.5,0.6-2.2c0.5-1.8,0.7-1.9,2.6-1.9h59c1.3,0,1.7,0.2,2,1.5
			c0.2,0.8,0.5,1.7,0.7,2.5C64.9,24.7,64.9,24.7,64.9,24.8z"/>
		<path class="st0" d="M57.4,0l2,3.8L58,4.5C54.9,6,51.7,7.4,48.7,9c-4.2,2.2-7.9,5.2-11,8.8c-1,1.1-1.9,1.2-3,0.1
			c-0.4-0.4-0.9-0.9-1.4-1.4c0.7-0.8,1.2-1.5,1.9-2.2C39,9.9,43.7,6.4,49,4c2.7-1.2,5.3-2.6,8-3.8L57.4,0z"/>
		<path class="st0" d="M31.5,16.5c-0.6,0.7-1.2,1.3-1.8,1.9C29,19,28.1,18.8,27.4,18c-1.4-1.4-2.7-2.8-4.1-4.1
			c-3.1-2.7-6.6-5-10.4-6.6c-2.3-1-4.6-2.2-6.9-3.2L5.6,3.8L7.5,0c0.1,0,0.2,0,0.3,0.1C11.7,2,15.7,3.9,19.6,6
			c4.4,2.5,8.3,5.8,11.4,9.8L31.5,16.5z"/>
	</g>
</g>
</svg>
