<svg width="512" height="512" xmlns="http://www.w3.org/2000/svg">

 <g>
  <title>background</title>
  <rect fill="none" id="canvas_background" height="402" width="582" y="-1" x="-1"/>
 </g>
 <g>
  <title>Layer 1</title>
  <circle fill="#eeedf2" id="svg_2" r="215.6" cy="257.1" cx="256.6" class="st0"/>
  <line stroke-miterlimit="10" stroke-linecap="round" stroke-width="6" stroke="#1e247e" fill="none" y2="472.7" y1="472.7" x2="472.7" x1="422.5" id="Right_39_" class="st9"/>
  <line stroke-miterlimit="10" stroke-linecap="round" stroke-width="6" stroke="#1e247e" fill="none" y2="472.7" y1="472.7" x2="409" x1="85.5" id="Middle_43_" class="st9"/>
  <line stroke-miterlimit="10" stroke-linecap="round" stroke-width="6" stroke="#1e247e" fill="none" y2="472.7" y1="472.7" x2="71.8" x1="41.4" id="Left_40_" class="st9"/>
  <path fill="#d3d5e7" id="Shadow_45_" d="m305.3,183.2l0,69c0,0.8 1,1.2 1.5,0.6l16.3,-16.3c2.5,-2.5 5.9,-3.9 9.4,-3.9l71.5,0c10.1,0 18.3,-8.2 18.3,-18.3l0,-40.7c0,-10.1 -8.2,-18.3 -18.3,-18.3l-70.8,0c-15.4,0 -27.9,12.5 -27.9,27.9z" class="st1"/>
  <path stroke-miterlimit="10" stroke-width="6" stroke="#1e247e" fill="#ffffff" id="Shape_60_" d="m290.2,151.3l0,69c0,0.8 1,1.2 1.5,0.6l16.3,-16.3c2.5,-2.5 5.9,-3.9 9.4,-3.9l71.5,0c10.1,0 18.3,-8.2 18.3,-18.3l0,-40.7c0,-10.1 -8.2,-18.3 -18.3,-18.3l-70.8,0c-15.4,0 -27.9,12.5 -27.9,27.9z" class="st22"/>
  <line stroke-miterlimit="10" stroke-linecap="round" stroke-width="5" stroke="#1e247e" fill="none" y2="176.5" y1="176.5" x2="379" x1="318.4" id="_x33_rd_10_" class="st18"/>
  <line stroke-miterlimit="10" stroke-linecap="round" stroke-width="5" stroke="#1e247e" fill="none" y2="162.3" y1="162.3" x2="379" x1="318.4" id="_x32_nd_11_" class="st18"/>
  <line stroke-miterlimit="10" stroke-linecap="round" stroke-width="5" stroke="#1e247e" fill="none" y2="148.2" y1="148.2" x2="379" x1="318.4" id="_x31_st_11_" class="st18"/>
  <path stroke-miterlimit="10" stroke-linecap="round" stroke-width="3" stroke="#1e247e" fill="none" id="Line_20_" d="m301,196.8c2.4,-3.3 6.2,-5.3 10.3,-5.6" class="st4"/>
  <path fill="#d3d5e7" id="Shadow_44_" d="m242.3,142.8l0,69c0,0.8 -1,1.2 -1.5,0.6l-16.3,-16.3c-2.5,-2.5 -5.9,-3.9 -9.4,-3.9l-71.5,0c-10.1,0 -18.3,-8.2 -18.3,-18.3l0,-40.7c0,-10.1 8.2,-18.3 18.3,-18.3l70.8,0c15.5,0 27.9,12.5 27.9,27.9z" class="st1"/>
  <path stroke-miterlimit="10" stroke-width="6" stroke="#1e247e" fill="#ffffff" id="Shape_59_" d="m216.5,106l0,69c0,0.8 -1,1.2 -1.5,0.6l-16.3,-16.3c-2.5,-2.5 -5.9,-3.9 -9.4,-3.9l-71.5,0c-10.1,0 -18.3,-8.2 -18.3,-18.3l0,-40.7c0,-10.1 8.2,-18.3 18.3,-18.3l70.8,0c15.5,0 27.9,12.5 27.9,27.9z" class="st22"/>
  <path stroke-miterlimit="10" stroke-linecap="round" stroke-width="3" stroke="#1e247e" fill="none" id="Line_19_" d="m196,90.5c3.9,1.3 7,4.3 8.5,8" class="st4"/>
  <line stroke-miterlimit="10" stroke-linecap="round" stroke-width="5" stroke="#1e247e" fill="none" y2="130.4" y1="130.4" x2="183.8" x1="123.2" id="_x33_rd_9_" class="st18"/>
  <line stroke-miterlimit="10" stroke-linecap="round" stroke-width="5" stroke="#1e247e" fill="none" y2="116.2" y1="116.2" x2="183.8" x1="123.2" id="_x32_nd_10_" class="st18"/>
  <line stroke-miterlimit="10" stroke-linecap="round" stroke-width="5" stroke="#1e247e" fill="none" y2="102.1" y1="102.1" x2="150" x1="123.2" id="_x31_st_10_" class="st18"/>
  <path stroke-miterlimit="10" stroke-linejoin="round" stroke-width="6" stroke="#1e247e" fill="#d3d5e7" id="Shape_58_" d="m236.7,472.1l-119.5,0l0,-59.7c0,-33 26.7,-59.7 59.7,-59.7l0,0c33,0 59.7,26.7 59.7,59.7l0,59.7l0.1,0z" class="st32"/>
  <circle stroke-miterlimit="10" stroke-linejoin="round" stroke-width="6" stroke="#1e247e" fill="#fcf5f2" r="29.8" id="Shape_57_" cy="307.7" cx="176.9" class="st33"/>
  <path stroke-miterlimit="10" stroke-linejoin="round" stroke-linecap="round" stroke-width="3" stroke="#1e247e" fill="none" id="Line_18_" d="m204.4,375.9c5.3,4.4 9.4,10 11.9,16.3" class="st14"/>
  <line stroke-miterlimit="10" stroke-linecap="round" stroke-width="2.5" stroke="#1e247e" fill="none" y2="408.4" y1="402.3" x2="152.9" x1="144.9" id="Bottom_42_" class="st5"/>
  <line stroke-miterlimit="10" stroke-linecap="round" stroke-width="2.5" stroke="#1e247e" fill="none" y2="406.9" y1="394.6" x2="161" x1="144.9" id="Middle_42_" class="st5"/>
  <line stroke-miterlimit="10" stroke-linecap="round" stroke-width="2.5" stroke="#1e247e" fill="none" y2="399" y1="395.6" x2="161" x1="156.6" id="Top_44_" class="st5"/>
  <line stroke-miterlimit="10" stroke-linecap="round" stroke-width="7" stroke="#ffffff" fill="none" y2="269.1" y1="266.7" x2="211.6" x1="220" id="Bottom_41_" class="st11"/>
  <line stroke-miterlimit="10" stroke-linecap="round" stroke-width="7" stroke="#ffffff" fill="none" y2="261.7" y1="254.6" x2="204.2" x1="211" id="Middle_41_" class="st11"/>
  <line stroke-miterlimit="10" stroke-linecap="round" stroke-width="7" stroke="#ffffff" fill="none" y2="246.5" y1="255.7" x2="197.1" x1="195.6" id="Top_43_" class="st11"/>
  <path stroke-miterlimit="10" stroke-linejoin="round" stroke-width="6" stroke="#1e247e" fill="#da867d" id="Shape_56_" d="m395.5,471.8l-119.5,0l0,-59.7c0,-33 26.7,-59.7 59.7,-59.7l0,0c33,0 59.7,26.7 59.7,59.7l0,59.7l0.1,0z" class="st34"/>
  <circle stroke-miterlimit="10" stroke-linejoin="round" stroke-width="6" stroke="#1e247e" fill="#fcf5f2" r="29.8" id="Shape_55_" cy="307.5" cx="335.7" class="st33"/>
  <path stroke-miterlimit="10" stroke-linejoin="round" stroke-linecap="round" stroke-width="3" stroke="#1e247e" fill="none" id="Line_17_" d="m363.2,374c5.3,4.4 9.4,10 11.9,16.3" class="st14"/>
  <line stroke-miterlimit="10" stroke-linecap="round" stroke-width="2.5" stroke="#1e247e" fill="none" y2="470.1" y1="463.9" x2="385.2" x1="377.2" id="Bottom_40_" class="st5"/>
  <line stroke-miterlimit="10" stroke-linecap="round" stroke-width="2.5" stroke="#1e247e" fill="none" y2="468.5" y1="456.2" x2="393.3" x1="377.2" id="Middle_40_" class="st5"/>
  <line stroke-miterlimit="10" stroke-linecap="round" stroke-width="2.5" stroke="#1e247e" fill="none" y2="460.7" y1="457.3" x2="393.3" x1="388.9" id="Top_42_" class="st5"/>
  <line stroke-miterlimit="10" stroke-linecap="round" stroke-width="7" stroke="#ffffff" fill="none" y2="263.4" y1="270.8" x2="289.3" x1="294.9" id="Bottom_39_" class="st11"/>
  <line stroke-miterlimit="10" stroke-linecap="round" stroke-width="7" stroke="#ffffff" fill="none" y2="290.2" y1="291.9" x2="287.1" x1="278.6" id="Middle_39_" class="st11"/>
  <line stroke-miterlimit="10" stroke-linecap="round" stroke-width="7" stroke="#ffffff" fill="none" y2="280.2" y1="277.1" x2="290.2" x1="280.9" id="Top_41_" class="st11"/>
 </g>
</svg>