<svg width="512" height="512" xmlns="http://www.w3.org/2000/svg">

 <g>
  <title>background</title>
  <rect fill="none" id="canvas_background" height="402" width="582" y="-1" x="-1"/>
 </g>
 <g>
  <title>Layer 1</title>
  <circle fill="#eeedf2" r="215.9" id="Background" cy="256" cx="256" class="st0"/>
  <line stroke-miterlimit="10" stroke-linecap="round" stroke-width="6" stroke="#1e247e" fill="none" y2="471.2" y1="471.2" x2="471.1" x1="443.5" id="Right" class="st1"/>
  <line stroke-miterlimit="10" stroke-linecap="round" stroke-width="6" stroke="#1e247e" fill="none" y2="471.2" y1="471.2" x2="431.5" x1="72.2" id="Middle_1_" class="st1"/>
  <line stroke-miterlimit="10" stroke-linecap="round" stroke-width="6" stroke="#1e247e" fill="none" y2="471.2" y1="471.2" x2="58.4" x1="40.4" id="Left" class="st1"/>
  <path stroke-miterlimit="10" stroke-linecap="round" stroke-width="6" stroke="#1e247e" fill="#efc12f" id="Hair_1_" d="m289.5,316.3l-56.1,0c-42.6,0 -76.3,-36 -73.8,-78.5c1.8,-30.6 6.5,-58.5 10.2,-68.4c8.7,-23.1 43.2,-78.2 119.9,-51.4c0,0 50.5,-11.1 64.9,53.5c4.4,19.7 7.5,43.2 8.9,66.6c2.6,42.5 -31.5,78.2 -74,78.2z" class="st2"/>
  <path stroke-miterlimit="10" stroke-linecap="round" stroke-width="3" stroke="#1e247e" fill="none" id="Line:_middle_top" d="m240.3,177.1c8.1,-1.5 17.2,-4.2 27,-8.9" class="st3"/>
  <path stroke-miterlimit="10" stroke-linecap="round" stroke-width="3" stroke="#1e247e" fill="none" id="Line:_left_top" d="m226.9,178.7c2.2,-0.1 4.6,-0.3 7,-0.6" class="st3"/>
  <path stroke-miterlimit="10" stroke-linecap="round" stroke-width="3" stroke="#1e247e" fill="#ffffff" id="Line:_right_top" d="m312.2,174.6c2.1,4.3 5.9,8.7 10.2,12c2.3,1.8 4.1,4 5.4,6.6" class="st4"/>
  <path stroke-miterlimit="10" stroke-linecap="round" stroke-width="3" stroke="#1e247e" fill="none" id="Line:_left_bottom" d="m180,274.6c-4.7,-6.4 -7.9,-14 -9,-22.2" class="st3"/>
  <path stroke-miterlimit="10" stroke-linecap="round" stroke-width="5" stroke="#1e247e" fill="#fcf5f2" id="Left_ear" d="m209.1,241.9l0,0c-2.9,2.7 -7.5,2.4 -10.2,-0.5l-6.8,-7.5c-2.7,-2.9 -2.4,-7.5 0.5,-10.2l0,0c2.9,-2.7 7.5,-2.4 10.2,0.5l6.8,7.5c2.7,3 2.5,7.6 -0.5,10.2z" class="st5"/>
  <path stroke-miterlimit="10" stroke-linecap="round" stroke-width="6" stroke="#1e247e" fill="#fcf5f2" id="Face_shape" d="m311.3,186c6.6,5.1 10.6,13 10.6,21.3l0,6.5c0,17.4 -4.9,34.5 -14.6,48.9c-5.9,8.7 -13.7,17.2 -23.9,22.6c-6.4,3.4 -13.8,5.5 -22.2,5.7l-0.7,0c-8.8,-0.1 -16.5,-2.3 -23.3,-5.9c-8.3,-4.4 -15,-10.8 -20.4,-17.6c-12,-15.3 -18.1,-34.5 -18.1,-53.9l0,-3.9c0,-10.7 8.7,-20.5 19.3,-22c14.6,-2 45.8,1.2 71.4,-20.6c2.3,-2 5.8,-1.2 7.1,1.5c3.1,6.2 8.5,12.6 14.8,17.4z" class="st6"/>
  <path fill="#1e247e" id="svg_3" d="m235.1,226.8c5.8,0 5.8,-9 0,-9c-5.8,0 -5.8,9 0,9l0,0z" class="st7"/>
  <path fill="#1e247e" id="svg_5" d="m285.4,226.8c5.8,0 5.8,-9 0,-9c-5.8,0 -5.8,9 0,9l0,0z" class="st7"/>
  <path stroke-miterlimit="10" stroke-linecap="round" stroke-width="3" stroke="#1e247e" fill="none" id="Nose" d="m267.2,234.1c-1.1,2 -3.8,3.5 -7,3.5c-3.1,0 -5.7,-1.4 -6.9,-3.3" class="st3"/>
  <path stroke-miterlimit="10" stroke-linecap="round" stroke-width="4" stroke="#1e247e" fill="none" id="Left_2_" d="m225,208.9c0,0 9.2,-4.3 17.8,0" class="st8"/>
  <path stroke-miterlimit="10" stroke-linecap="round" stroke-width="4" stroke="#1e247e" fill="none" id="Right_2_" d="m295.4,208.9c0,0 -9.2,-4.3 -17.8,0" class="st8"/>
  <ellipse fill="#eab8b1" id="svg_6" ry="6.5" rx="9.7" cy="237.5" cx="225.4" class="st9"/>
  <ellipse fill="#eab8b1" ry="6.5" rx="9.7" id="Right_3_" cy="237.5" cx="295.1" class="st9"/>
  <path stroke-miterlimit="10" stroke-linecap="round" stroke-width="4" stroke="#1e247e" fill="#dc9695" id="Mouth_1_" d="m273.4,253.2l-2,5l-0.2,0.5c-0.4,1 -1,2 -1.9,3.4c-0.3,0.4 -0.6,0.8 -0.9,1.2c-0.8,0.9 -1.9,1.8 -3.1,2.5c-0.1,0.1 -0.2,0.1 -0.4,0.2c-0.5,0.3 -1,0.5 -1.5,0.7c-0.5,0.2 -1.1,0.4 -1.7,0.6c-0.5,0.2 -1,0.2 -1.5,0.2c-0.5,0 -1,-0.1 -1.5,-0.2l0,0c-0.6,-0.2 -1.2,-0.4 -1.7,-0.6c-0.5,-0.2 -1,-0.5 -1.5,-0.7c-0.1,-0.1 -0.2,-0.1 -0.4,-0.2c-1.2,-0.7 -2.3,-1.6 -3.1,-2.5c-0.4,-0.4 -0.7,-0.8 -1,-1.3c-0.8,-1.1 -1.4,-2.3 -1.8,-3.3l-2.2,-5.5c-0.4,-1 0.3,-2.1 1.4,-2.1l23.6,0c1.1,0 1.8,1.1 1.4,2.1z" class="st10"/>
  <path stroke-miterlimit="10" stroke-linecap="round" stroke-width="3" stroke="#1e247e" fill="#eeced1" id="Tongue_1_" d="m268.3,263.4c-0.2,0.3 -0.7,0.8 -1.1,1.1c-0.8,0.7 -1.7,1.2 -2.7,1.8c-0.1,0.1 -0.3,0.2 -0.4,0.2c-0.4,0.2 -0.8,0.3 -1.2,0.5c-0.4,0.2 -0.9,0.3 -1.4,0.5c-0.4,0.1 -0.8,0.2 -1.2,0.2c-0.4,0 -0.8,-0.1 -1.2,-0.2l0,0c-0.5,-0.1 -1,-0.3 -1.4,-0.5c-0.4,-0.2 -0.8,-0.3 -1.2,-0.5c-0.1,-0.1 -0.3,-0.1 -0.4,-0.2c-1,-0.6 -2.1,-1.2 -2.8,-1.9c-0.3,-0.3 -0.7,-0.5 -0.9,-0.9c0.6,-2 3,-3.9 5.2,-3.9c1.3,0 2.6,0.5 3.4,1.4c0.1,0.1 0.1,0.1 0.2,0c0.7,-0.5 1.5,-0.8 2.5,-0.8c1.8,0 4,1.5 4.6,3.2z" class="st11"/>
  <path stroke-miterlimit="10" stroke-linecap="round" stroke-width="3" stroke="#1e247e" fill="#cb7272" id="Line" d="m260.9,260.9c0,0 1,0.8 1.5,2.4" class="st12"/>
  <path stroke-miterlimit="10" stroke-linecap="round" stroke-width="6" stroke="#1e247e" fill="#d3d5e7" id="svg_7" d="m324,469.8l-127.5,0c-14,0 -25.5,-11.5 -25.5,-25.5l0,-79.9c0,-36.8 29.9,-66.7 66.7,-66.7l45.2,0c36.8,0 66.7,29.9 66.7,66.7l0,79.9c-0.1,14 -11.5,25.5 -25.6,25.5z" class="st13"/>
  <path stroke-miterlimit="10" stroke-linecap="round" stroke-width="6" stroke="#1e247e" fill="#fcf5f2" id="Neck_1_" d="m283.4,285.3l0,18c0,0.6 -0.3,1.2 -0.7,1.5c-20.4,16.6 -40.5,3.1 -44.6,0c-0.5,-0.4 -0.8,-1 -0.8,-1.6l0,-18.1c6.7,3.5 14.4,5.8 23.3,5.9l0.7,0c8.3,-0.2 15.6,-2.4 22.1,-5.7z" class="st6"/>
  <path stroke-miterlimit="10" stroke-linecap="round" stroke-width="6" stroke="#1e247e" fill="#d3d5e7" id="Speaker" d="m348.3,227.5l0,8c0,11.3 -9.2,20.5 -20.5,20.5l-15.3,0l0,-2.4c6.2,-12.3 9.3,-25.9 9.3,-39.8l0,-6.8l6,0c11.3,0 20.5,9.2 20.5,20.5z" class="st13"/>
  <path stroke-miterlimit="10" stroke-linecap="round" stroke-width="6" stroke="#1e247e" fill="none" id="svg_9" d="m276.1,269.7l38.5,0c5.1,0 9.2,-4.1 9.2,-9.2l0,-0.6l0,-3.9" class="st1"/>
  <path stroke-miterlimit="10" stroke-linecap="round" stroke-width="6" stroke="#1e247e" fill="#d3d5e7" id="svg_10" d="m278.7,274.1l-4.4,0c-2.4,0 -4.4,-2 -4.4,-4.4l0,0c0,-2.4 2,-4.4 4.4,-4.4l4.4,0c2.4,0 4.4,2 4.4,4.4l0,0c0,2.4 -2,4.4 -4.4,4.4z" class="st13"/>
  <path fill="#d3d5e7" id="Shadow_2_" d="m185.8,65.1l0,60.8c0,9 -7.3,16.2 -16.2,16.2l0,0l0,21.6c0,1.2 -1.3,1.9 -2.3,1.3l-36.1,-22.9l-72.4,0c-9,0 -16.2,-7.3 -16.2,-16.2l0,-60.8c0,-9 7.3,-16.2 16.2,-16.2l110.8,0c9,0 16.2,7.2 16.2,16.2z" class="st14"/>
  <path stroke-miterlimit="10" stroke-linecap="round" stroke-width="5" stroke="#1e247e" fill="#ffffff" id="Shape" d="m178.3,56.9l0,58.6c0,8.6 -7,15.6 -15.6,15.6l0,0l0,20.8c0,1.1 -1.3,1.8 -2.2,1.2l-34.8,-22l-69.7,0c-8.6,0 -15.6,-7 -15.6,-15.6l0,-58.6c0,-8.6 7,-15.6 15.6,-15.6l106.7,0c8.6,0 15.6,7 15.6,15.6z" class="st15"/>
  <line stroke-miterlimit="10" stroke-linecap="round" stroke-width="4" stroke="#1e247e" fill="#ffffff" y2="98.1" y1="98.1" x2="79.6" x1="55.2" id="_x34_th_line" class="st16"/>
  <line stroke-miterlimit="10" stroke-linecap="round" stroke-width="4" stroke="#1e247e" fill="#ffffff" y2="88.8" y1="88.8" x2="104" x1="55.2" id="_x33_rd_line" class="st16"/>
  <line stroke-miterlimit="10" stroke-linecap="round" stroke-width="4" stroke="#1e247e" fill="#ffffff" y2="79.5" y1="79.5" x2="104" x1="55.2" id="_x32_nd_line" class="st16"/>
  <line stroke-miterlimit="10" stroke-linecap="round" stroke-width="4" stroke="#1e247e" fill="#ffffff" y2="70.2" y1="70.2" x2="104" x1="55.2" id="_x31_st_line" class="st16"/>
  <path fill="#ececee" id="Body_background" d="m156.2,115.6l-27.8,0c-4.3,0 -7.8,-3.5 -7.8,-7.8l0,-40.5c0,-4.3 3.5,-7.8 7.8,-7.8l27.8,0c4.3,0 7.8,3.5 7.8,7.8l0,40.5c0.1,4.3 -3.4,7.8 -7.8,7.8z" class="st17"/>
  <path stroke-miterlimit="10" stroke-linecap="round" stroke-width="4" stroke="#1e247e" fill="#da867d" id="Body_1_" d="m152.5,107.1l-19.3,0c-0.7,0 -1.2,-0.5 -1.2,-1.2l0,-8c0,-5.7 4.6,-10.3 10.3,-10.3l1.2,0c5.7,0 10.3,4.6 10.3,10.3l0,8c-0.1,0.6 -0.7,1.2 -1.3,1.2z" class="st18"/>
  <circle stroke-miterlimit="10" stroke-linecap="round" stroke-width="4" stroke="#1e247e" fill="#fcf5f2" r="5.8" id="Head" cy="74.8" cx="142.8" class="st19"/>
  <path stroke-miterlimit="10" stroke-linecap="round" stroke-width="3" stroke="#1e247e" fill="none" id="Line:_top_left" d="m47.4,55.4c0.9,-2.6 2.7,-4.7 5,-6" class="st3"/>
  <path stroke-miterlimit="10" stroke-linecap="round" stroke-width="6" stroke="#1e247e" fill="#d3d5e7" id="Laptop_bottom" d="m381.8,471l-243,0c-11.4,0 -20.7,-9.3 -20.7,-20.7l0,-7.2c0,-0.5 0.4,-0.9 0.9,-0.9l282.6,0c0.5,0 0.9,0.4 0.9,0.9l0,7.2c0,11.4 -9.3,20.7 -20.7,20.7z" class="st13"/>
  <path stroke-miterlimit="10" stroke-linecap="round" stroke-width="6" stroke="#1e247e" fill="#69aef8" id="Latop_top" d="m360.5,471l-199.6,0c-10.4,0 -18.9,-8.5 -18.9,-18.9l0,-119.9c0,-8.5 6.9,-15.4 15.4,-15.4l206.6,0c8.5,0 15.4,6.9 15.4,15.4l0,119.9c0,10.4 -8.5,18.9 -18.9,18.9z" class="st20"/>
  <path fill="#ffffff" opacity="0.4" id="svg_12" d="m277.7,396c0,7 -4.2,13 -10.2,15.5c0.4,-0.9 0.6,-1.9 0.6,-2.9c0,-4.3 -3.5,-7.8 -7.8,-7.8c-4.3,0 -7.8,3.5 -7.8,7.8c0,0.8 0.1,1.6 0.4,2.3c-5.4,-2.8 -9,-8.5 -9,-15c0,-9.4 7.6,-16.9 16.9,-16.9c9.3,0 16.9,7.6 16.9,17z" class="st21"/>
  <path fill="#ffffff" opacity="0.7" id="svg_13" d="m268,408.6c0,1 -0.2,2 -0.6,2.9c-2.1,0.9 -4.3,1.4 -6.7,1.4c-2.9,0 -5.5,-0.7 -7.9,-2c-0.2,-0.7 -0.4,-1.5 -0.4,-2.3c0,-4.3 3.5,-7.8 7.8,-7.8c4.4,0.1 7.8,3.5 7.8,7.8z" class="st22"/>
  <path stroke-miterlimit="10" stroke-linecap="round" stroke-width="3" stroke="#1e247e" fill="none" id="Line:_right_top_1_" d="m360.1,323.6c5.7,0 10.4,4.7 10.4,10.4" class="st3"/>
  <line stroke-miterlimit="10" stroke-linecap="round" stroke-width="3" stroke="#1e247e" fill="none" y2="404.3" y1="386.2" x2="370.6" x1="370.6" id="Line:_right_middle" class="st3"/>
  <line stroke-miterlimit="10" stroke-linecap="round" stroke-width="2.5" stroke="#1e247e" fill="#69adf7" y2="383.2" y1="378.1" x2="189.6" x1="183" id="Bottom_1_" class="st23"/>
  <line stroke-miterlimit="10" stroke-linecap="round" stroke-width="2.5" stroke="#1e247e" fill="#69adf7" y2="381.9" y1="371.9" x2="196.1" x1="183" id="Middle_2_" class="st23"/>
  <line stroke-miterlimit="10" stroke-linecap="round" stroke-width="2.5" stroke="#1e247e" fill="#69adf7" y2="375.5" y1="372.7" x2="196.1" x1="192.5" id="Top_1_" class="st23"/>
  <line stroke-miterlimit="10" stroke-linecap="round" stroke-width="7" stroke="#ffffff" fill="none" y2="317" y1="314.6" x2="395.6" x1="404" id="Bottom" class="st24"/>
  <line stroke-miterlimit="10" stroke-linecap="round" stroke-width="7" stroke="#ffffff" fill="none" y2="309.6" y1="302.5" x2="388.3" x1="395" id="Middle" class="st24"/>
  <line stroke-miterlimit="10" stroke-linecap="round" stroke-width="7" stroke="#ffffff" fill="none" y2="294.4" y1="303.5" x2="381.2" x1="379.7" id="Top" class="st24"/>
 </g>
</svg>