<svg width="512" height="512" xmlns="http://www.w3.org/2000/svg">

 <g>
  <title>background</title>
  <rect fill="none" id="canvas_background" height="402" width="582" y="-1" x="-1"/>
 </g>
 <g>
  <title>Layer 1</title>
  <circle fill="#eeedf2" r="215.6" id="Background_8_" cy="257.9" cx="257.2" class="st0"/>
  <path fill="#d2d4e6" id="Outer_shadow" d="m312,130.7c13,13.3 30.3,21.7 48.8,23.7c8.2,0.9 16.3,1.3 23.7,1.3c2,0 3.9,0.2 5.6,0.4c18.8,3 19.2,20 18.6,29.3c-0.5,8.1 -5.3,84.4 -7.1,114.1c-0.9,14.6 -4.3,29 -10.2,42.4c-4.6,10.5 -11.3,21.5 -20.6,29.2c-18.2,15.1 -66,49.2 -86.8,64c-6,4.2 -13.9,4.2 -19.9,0c-4.5,-3.2 -10.2,-7.3 -16.7,-11.9c-23.4,-16.7 -55.9,-40.3 -70.1,-52.1c-9.3,-7.8 -16,-18.8 -20.6,-29.2c-5.9,-13.4 -9.3,-27.8 -10.2,-42.4c-1.8,-29.6 -6.6,-106 -7.1,-114.1c-0.7,-10.1 -0.5,-27.1 23.8,-27.3c7.4,-0.1 15.9,-2.9 24.1,-3.8c18.5,-2 35.7,-10.4 48.8,-23.7l15.1,-17c12.2,-13.7 33.5,-13.7 45.7,0l15.1,17.1z" class="st56"/>
  <path stroke-miterlimit="10" stroke-width="6" stroke="#1e247e" fill="#dbe7fe" id="Shape_38_" d="m295.1,135.8c13,13.3 30.3,21.7 48.8,23.7c8.2,0.9 16.3,1.3 23.7,1.3c2,0 3.9,0.2 5.6,0.4c18.8,3 19.2,20 18.6,29.3c-0.5,8.1 -5.3,84.4 -7.1,114.1c-0.9,14.6 -4.3,29 -10.2,42.4c-4.6,10.5 -11.3,21.5 -20.6,29.2c-18.2,15.1 -66,49.2 -86.8,64c-6,4.2 -13.9,4.2 -19.9,0c-4.5,-3.2 -10.2,-7.3 -16.7,-11.9c-23.4,-16.7 -55.9,-40.3 -70.1,-52.1c-9.3,-7.8 -16,-18.8 -20.6,-29.2c-5.9,-13.4 -9.3,-27.8 -10.2,-42.4c-1.8,-29.6 -6.6,-106 -7.1,-114.1c-0.7,-10.1 -0.1,-29.5 24.2,-29.7c7.4,-0.1 15.5,-0.4 23.7,-1.3c18.5,-2 35.7,-10.4 48.8,-23.7l15.1,-17c12.2,-13.7 33.5,-13.7 45.7,0l15.1,17z" class="st71"/>
  <path stroke-miterlimit="10" stroke-linecap="round" stroke-width="3" stroke="#1e247e" fill="none" id="_x34_th_4_" d="m329.7,379c-6.4,4.8 -13.2,9.7 -19.8,14.5" class="st3"/>
  <path stroke-miterlimit="10" stroke-linecap="round" stroke-width="3" stroke="#1e247e" fill="none" id="_x33_rd_6_" d="m343,369.1c-2.3,1.8 -4.8,3.6 -7.3,5.5" class="st3"/>
  <path stroke-miterlimit="10" stroke-linecap="round" stroke-width="3" stroke="#1e247e" fill="none" id="_x32_nd_6_" d="m365.3,175.2c1,0 1.9,0.1 2.8,0.2c6.5,1 8.6,5.5 9.2,9.7" class="st3"/>
  <path stroke-miterlimit="10" stroke-linecap="round" stroke-width="3" stroke="#1e247e" fill="none" id="_x31_st_6_" d="m268,125.8c1.6,1 3,2.3 4.3,3.7l10.7,12c2.2,2.2 4.6,4.3 7.1,6.1" class="st3"/>
  <path stroke-miterlimit="10" stroke-linecap="round" stroke-width="6" stroke="#1e247e" fill="none" id="Check_mark" d="m238.1,232.4l18.5,24c0.3,0.4 0.8,0.4 1.1,0l31.4,-43.2" class="st1"/>
  <path stroke-miterlimit="10" stroke-width="5" stroke="#1e247e" fill="#da867d" id="Shape_37_" d="m417.7,296.7c0.1,0 0,-0.3 0,-0.4l0,-46.1c0,-3.2 -1.6,-6.3 -4.4,-7.9c-5.3,-3 -14.2,-3.8 -24.5,-3.2c-0.9,0 -1.9,0.1 -2.9,0.2c-0.3,0 -0.6,0 -0.9,0.1c-0.9,0.1 -1.9,0.2 -2.8,0.3c-5.1,0.5 -10.5,1.2 -15.8,2c-23.5,3.7 -65,16.9 -80.8,22.5c-6,2.1 -16.7,6.2 -28.4,10.8c-0.7,0.3 -1.4,0.5 -2.1,0.8c-20.2,7.9 -42.9,17 -50.4,19.9c-9.2,3.6 -35.1,11.2 -56.9,16.9c-6.1,1.6 -11.9,3 -16.8,4.2c-0.1,0 -0.3,0.1 -0.4,0.1c-0.5,0.1 -0.9,0.2 -1.3,0.3c-9.5,2.1 -15.9,2.5 -20.1,2.1c-0.3,0 -0.6,0 -0.8,-0.1c-0.2,0 -0.5,-0.1 -0.7,-0.1c-0.2,0 -0.4,-0.1 -0.5,-0.1c0,0 -0.1,0 -0.1,0c-0.3,0 -0.5,-0.1 -0.8,-0.1c-2.5,-0.5 -3.7,-1.2 -4.2,-1.5c-0.1,-0.1 -0.2,0 -0.2,0.1l0,46.1c0,3.2 1.9,6.2 4.9,7.4c6.6,2.8 20.7,5.9 47.1,0.4c0.5,-0.1 0.9,-0.2 1.4,-0.3c0,0 0,0 0.1,0c39.5,-8.3 68.6,-18.8 68.6,-18.8l31.3,-13l2.1,-0.9l21.7,-9c0,0 38.6,-16.8 55,-22c0,0 22.5,-7.8 44.7,-11.8c0,0 12.3,-2 22.4,-1.6c9.6,0.6 15,1.7 16.5,2.7z" class="st72"/>
  <path stroke-miterlimit="10" stroke-width="5" stroke="#1e247e" fill="#f5f5f7" id="Right_bottom_part" d="m397,307.9l0.7,10.9c0,0.2 -0.1,0.3 -0.2,0.3c-1.7,0.4 -9.5,2 -14.9,2.1c0.9,-4.1 1.2,-6.6 1.6,-10.9c2.2,-0.6 4.7,-1.1 7.7,-1.6c1.1,0 4.1,-0.6 5.1,-0.8z" class="st73"/>
  <path stroke-miterlimit="10" stroke-width="5" stroke="#1e247e" fill="#d5d6de" id="Right_top_part" d="m417.7,296.7c0,0 3.9,6.8 -22.6,11.6c-1,0.2 -2.1,0.4 -3.2,0.6c-3,0.5 -5.5,1 -7.7,1.6c0.2,-1.9 0.4,-3.8 0.5,-5.7c0.2,-2.8 0.4,-6 0.6,-9.5c0,-0.1 21.9,-3.1 32.4,1.4z" class="st74"/>
  <path stroke-miterlimit="10" stroke-width="5" stroke="#1e247e" fill="#d5d6de" id="Left_bottom_part" d="m131.3,316.3c-0.5,0.1 -0.9,0.2 -1.4,0.3c-9.8,2 -16.3,2.4 -20.6,2c-0.3,0 -0.6,0 -0.9,-0.1c-0.3,0 -0.5,-0.1 -0.7,-0.1c-0.2,0 -0.4,-0.1 -0.5,-0.1c0,0 -0.1,0 -0.1,0c-0.3,0 -0.5,-0.1 -0.8,-0.1c-2.6,-0.5 -3.8,-1.2 -4.3,-1.5c-0.2,-0.1 -0.2,-0.2 -0.2,-0.2s-2.2,-5.3 11.6,-9.6c0,0 0,0 0,0c0.4,-0.1 0.9,-0.3 1.3,-0.4c6,-1.9 11,-3.3 15,-4.4c0.1,0.9 0.1,1.7 0.2,2.4c0,0.1 0,0.2 0,0.4c0.3,3.9 0.7,7.6 1.4,11.4z" class="st74"/>
  <path stroke-miterlimit="10" stroke-width="5" stroke="#1e247e" fill="#f5f5f7" id="Left_top_part" d="m129.8,301.8c-0.2,-3.3 -0.4,-6.6 -0.7,-10.5c-5,0.8 -11.6,2.1 -14.7,3.1c-0.2,0.1 -0.3,0.3 -0.3,0.5l0,11.9c5.9,-1.9 10.7,-3.5 14.6,-4.6l1.1,-0.4z" class="st73"/>
  <line stroke-miterlimit="10" stroke-linecap="round" stroke-width="3" stroke="#1e247e" fill="none" id="svg_2" y2="344.5" y1="356.2" x2="110.9" x1="110.9" class="st3"/>
  <path stroke-miterlimit="10" stroke-linecap="round" stroke-width="3" stroke="#1e247e" fill="none" id="svg_3" d="m194.6,310.8c1.2,-0.4 2.2,-0.8 3.1,-1.1" class="st3"/>
  <path stroke-miterlimit="10" stroke-linecap="round" stroke-width="3" stroke="#1e247e" fill="none" id="svg_4" d="m166.4,319.5c6.9,-2 13.4,-3.9 18.9,-5.7" class="st3"/>
  <line stroke-miterlimit="10" stroke-linecap="round" stroke-width="2.5" stroke="#1e247e" fill="#69adf7" y2="299.9" y1="294.9" x2="290.1" x1="283.6" id="Bottom_22_" class="st23"/>
  <line stroke-miterlimit="10" stroke-linecap="round" stroke-width="2.5" stroke="#1e247e" fill="#69adf7" y2="298.6" y1="288.6" x2="296.7" x1="283.6" id="Middle_20_" class="st23"/>
  <line stroke-miterlimit="10" stroke-linecap="round" stroke-width="2.5" stroke="#1e247e" fill="#69adf7" y2="292.2" y1="289.5" x2="296.7" x1="293.1" id="Top_23_" class="st23"/>
  <path fill="#ffffff" id="Bottom_21_" d="m230.5,241.7c-16.4,-0.8 -16,-19.1 -16,-19.1c-0.4,20 -16.9,19.1 -16.9,19.1s16.9,1.6 16.9,18.6c0,0 2.1,-17 16,-18.6" class="st40"/>
  <path fill="#ffffff" id="Top_22_" d="m211.7,219.9c-7.7,-0.4 -7.5,-9 -7.5,-9c-0.2,9.4 -7.9,9 -7.9,9s7.9,0.8 7.9,8.8c0,-0.1 1,-8.1 7.5,-8.8" class="st40"/>
  <line stroke-miterlimit="10" stroke-linecap="round" stroke-width="7" stroke="#ffffff" fill="none" y2="96.3" y1="93.8" x2="302.7" x1="311.1" id="Bottom_20_" class="st24"/>
  <line stroke-miterlimit="10" stroke-linecap="round" stroke-width="7" stroke="#ffffff" fill="none" y2="88.9" y1="81.7" x2="295.3" x1="302.1" id="Middle_19_" class="st24"/>
  <line stroke-miterlimit="10" stroke-linecap="round" stroke-width="7" stroke="#ffffff" fill="none" y2="73.6" y1="82.8" x2="288.2" x1="286.7" id="Top_21_" class="st24"/>
  <path stroke-miterlimit="10" stroke-linecap="round" stroke-width="5" stroke="#1e247e" fill="#ffffff" id="Shape_36_" d="m186.8,226.7c0,13.7 -11.1,24.8 -24.7,24.8l-101.3,0c-10.8,0 -19.6,-8.8 -19.6,-19.6c0,-0.7 0,-1.3 0.1,-2c0,-0.4 0.1,-0.9 0.2,-1.3c1.3,-7.9 7.4,-14.2 15.1,-15.8c1.3,-0.3 2.7,-0.5 4.2,-0.5c0.1,0 0.1,0 0.2,0c-0.1,-1.1 -0.2,-2.2 -0.2,-3.3c0,-1.8 0.2,-3.6 0.5,-5.3c2.4,-12.4 13.4,-21.8 26.6,-21.8c1.7,0 3.4,0.2 5.1,0.5c3.8,-11.5 12.7,-20.7 24.1,-24.8c3.5,-1.3 7.3,-2 11.3,-2.2c0.6,0 1.3,-0.1 1.9,-0.1c0.1,0 0.2,0 0.3,0c21.5,0.1 38.9,17.6 38.9,39.2c0,2.9 -0.3,5.7 -0.9,8.3c10.5,2.9 18.2,12.5 18.2,23.9z" class="st15"/>
  <path stroke-miterlimit="10" stroke-linecap="round" stroke-width="5" stroke="#1e247e" fill="#ffffff" id="Line__x23_3_2_" d="m169.4,193.9c0,11.2 -4.8,21.3 -12.3,28.5" class="st15"/>
  <path stroke-miterlimit="10" stroke-linecap="round" stroke-width="4" stroke="#1e247e" fill="none" id="Line__x23_2_2_" d="m143.9,168.8c4.6,2.2 8.4,5.6 11.1,9.9" class="st8"/>
  <path stroke-miterlimit="10" stroke-linecap="round" stroke-width="5" stroke="#1e247e" fill="none" id="Line__x23_1_2_" d="m87.1,181.9c12.4,0 22.8,8.4 25.6,19.9" class="st44"/>
  <path stroke-miterlimit="10" stroke-linecap="round" stroke-width="5" stroke="#1e247e" fill="#ffffff" id="Shape_35_" d="m424.1,405.7c0,13.7 -11.1,24.8 -24.7,24.8l-101.3,0c-10.8,0 -19.6,-8.8 -19.6,-19.6c0,-0.7 0,-1.3 0.1,-2c0,-0.4 0.1,-0.9 0.2,-1.3c1.3,-7.9 7.4,-14.2 15.1,-15.8c1.3,-0.3 2.7,-0.5 4.2,-0.5c0.1,0 0.1,0 0.2,0c-0.1,-1.1 -0.2,-2.2 -0.2,-3.3c0,-1.8 0.2,-3.6 0.5,-5.3c2.4,-12.4 13.4,-21.8 26.6,-21.8c1.7,0 3.4,0.2 5.1,0.5c3.8,-11.5 12.7,-20.7 24.1,-24.8c3.5,-1.3 7.3,-2 11.3,-2.2c0.6,0 1.3,-0.1 1.9,-0.1c0.1,0 0.2,0 0.3,0c21.5,0.1 38.9,17.6 38.9,39.2c0,2.9 -0.3,5.7 -0.9,8.3c10.5,2.9 18.2,12.5 18.2,23.9z" class="st15"/>
  <path stroke-miterlimit="10" stroke-linecap="round" stroke-width="5" stroke="#1e247e" fill="#ffffff" id="Line__x23_3_1_" d="m406.8,372.9c0,11.2 -4.8,21.3 -12.3,28.5" class="st15"/>
  <path stroke-miterlimit="10" stroke-linecap="round" stroke-width="4" stroke="#1e247e" fill="none" id="Line__x23_2_1_" d="m381.3,347.8c4.6,2.2 8.4,5.6 11.1,9.9" class="st8"/>
  <path stroke-miterlimit="10" stroke-linecap="round" stroke-width="5" stroke="#1e247e" fill="none" id="Line__x23_1_1_" d="m324.5,360.9c12.4,0 22.8,8.4 25.6,19.9" class="st44"/>
 </g>
</svg>